%!PS-Adobe-3.0
%%DocumentNeededResources: font Helvetica
%%+ font Helvetica-Bold
%%+ font Helvetica-Oblique
%%+ font Helvetica-BoldOblique
%%+ font Symbol
%%DocumentMedia: a4 595 841 0 () ()
%%Title: R Graphics Output
%%Creator: R Software
%%Pages: (atend)
%%Orientation: Landscape
%%BoundingBox: 18 18 577 824
%%EndComments
%%BeginProlog
/bp  { gs sRGB 595.00 0 translate 90 rotate gs } def
% begin .ps.prolog
/gs  { gsave } bind def
/gr  { grestore } bind def
/ep  { showpage gr gr } bind def
/m   { moveto } bind def
/l  { rlineto } bind def
/np  { newpath } bind def
/cp  { closepath } bind def
/f   { fill } bind def
/o   { stroke } bind def
/c   { newpath 0 360 arc } bind def
/r   { 4 2 roll moveto 1 copy 3 -1 roll exch 0 exch rlineto 0 rlineto -1 mul 0 exch rlineto closepath } bind def
/p1  { stroke } bind def
/p2  { gsave bg fill grestore newpath } bind def
/p3  { gsave bg fill grestore stroke } bind def
/p6  { gsave bg eofill grestore newpath } bind def
/p7  { gsave bg eofill grestore stroke } bind def
/t   { 5 -2 roll moveto gsave rotate
       1 index stringwidth pop
       mul neg 0 rmoveto show grestore } bind def
/ta  { 4 -2 roll moveto gsave rotate show } bind def
/tb  { 2 -1 roll 0 rmoveto show } bind def
/cl  { grestore gsave newpath 3 index 3 index moveto 1 index
       4 -1 roll lineto  exch 1 index lineto lineto
       closepath clip newpath } bind def
/rgb { setrgbcolor } bind def
/s   { scalefont setfont } bind def
% end   .ps.prolog
/sRGB { [ /CIEBasedABC
          << /DecodeLMN
               [ { dup 0.03928 le
                        {12.92321 div}
                        {0.055 add 1.055 div 2.4 exp }
                     ifelse
                 } bind dup dup
               ]
             /MatrixLMN [0.412457 0.212673 0.019334
                         0.357576 0.715152 0.119192
                         0.180437 0.072175 0.950301]
             /WhitePoint [0.9505 1.0 1.0890]
           >>
         ] setcolorspace } bind def
/srgb { setcolor } bind def
% begin encoding
/WinAnsiEncoding [
 /.notdef /.notdef /.notdef /.notdef /.notdef /.notdef /.notdef /.notdef
 /.notdef /.notdef /.notdef /.notdef /.notdef /.notdef /.notdef /.notdef
 /.notdef /.notdef /.notdef /.notdef /.notdef /.notdef /.notdef /.notdef
 /.notdef /.notdef /.notdef /.notdef /.notdef /.notdef /.notdef /.notdef
 /space /exclam /quotedbl /numbersign /dollar /percent /ampersand /quoteright
 /parenleft /parenright /asterisk /plus /comma /minus /period /slash
 /zero /one /two /three /four /five /six /seven
 /eight /nine /colon /semicolon /less /equal /greater /question
 /at /A /B /C /D /E /F /G
 /H /I /J /K /L /M /N /O
 /P /Q /R /S /T /U /V /W
 /X /Y /Z /bracketleft /backslash /bracketright /asciicircum /underscore
 /grave /a /b /c /d /e /f /g
 /h /i /j /k /l /m /n /o
 /p /q /r /s /t /u /v /w
 /x /y /z /braceleft /bar /braceright /asciitilde /.notdef
 /Euro /.notdef /quotesinglbase /florin /quotedblbase /ellipsis /dagger /daggerdbl
 /circumflex /perthousand /Scaron /guilsinglleft /OE /.notdef /Zcaron /.notdef
 /.notdef /quoteleft /quoteright /quotedblleft /quotedblright /bullet /endash /emdash
 /tilde /trademark /scaron /guilsinglright /oe /.notdef /zcaron /Ydieresis
 /space /exclamdown /cent /sterling /currency /yen /brokenbar /section
 /dieresis /copyright /ordfeminine /guillemotleft /logicalnot /hyphen /registered /macron
 /degree /plusminus /twosuperior /threesuperior /acute /mu /paragraph /periodcentered
 /cedilla /onesuperior /ordmasculine /guillemotright /onequarter /onehalf /threequarters /questiondown
 /Agrave /Aacute /Acircumflex /Atilde /Adieresis /Aring /AE /Ccedilla
 /Egrave /Eacute /Ecircumflex /Edieresis /Igrave /Iacute /Icircumflex /Idieresis
 /Eth /Ntilde /Ograve /Oacute /Ocircumflex /Otilde /Odieresis /multiply
 /Oslash /Ugrave /Uacute /Ucircumflex /Udieresis /Yacute /Thorn /germandbls
 /agrave /aacute /acircumflex /atilde /adieresis /aring /ae /ccedilla
 /egrave /eacute /ecircumflex /edieresis /igrave /iacute /icircumflex /idieresis
 /eth /ntilde /ograve /oacute /ocircumflex /otilde /odieresis /divide
 /oslash /ugrave /uacute /ucircumflex /udieresis /yacute /thorn /ydieresis
]
 def
% end encoding
%%IncludeResource: font Helvetica
/Helvetica findfont
dup length dict begin
  {1 index /FID ne {def} {pop pop} ifelse} forall
  /Encoding WinAnsiEncoding def
  currentdict
  end
/Font1 exch definefont pop
%%IncludeResource: font Helvetica-Bold
/Helvetica-Bold findfont
dup length dict begin
  {1 index /FID ne {def} {pop pop} ifelse} forall
  /Encoding WinAnsiEncoding def
  currentdict
  end
/Font2 exch definefont pop
%%IncludeResource: font Helvetica-Oblique
/Helvetica-Oblique findfont
dup length dict begin
  {1 index /FID ne {def} {pop pop} ifelse} forall
  /Encoding WinAnsiEncoding def
  currentdict
  end
/Font3 exch definefont pop
%%IncludeResource: font Helvetica-BoldOblique
/Helvetica-BoldOblique findfont
dup length dict begin
  {1 index /FID ne {def} {pop pop} ifelse} forall
  /Encoding WinAnsiEncoding def
  currentdict
  end
/Font4 exch definefont pop
%%IncludeResource: font Symbol
/Symbol findfont
dup length dict begin
  {1 index /FID ne {def} {pop pop} ifelse} forall
  currentdict
  end
/Font5 exch definefont pop
%%EndProlog
%%Page: 1 1
bp
18.00 18.00 823.89 577.28 cl
48.24 48.24 793.65 518.24 cl
/Font1 findfont 12 s
0 0 0 srgb
425.44 461.26 (|) .5 0 t
0.75 setlinewidth
[] 0 setdash
1 setlinecap
1 setlinejoin
10.00 setmiterlimit
np
232.22 343.68 m
154.57 120.88 l
77.29 0 l
154.58 -120.88 l
o
np
133.36 222.80 m
79.09 120.88 l
39.54 0 l
79.09 -120.88 l
o
np
241.21 101.91 m
71.89 120.89 l
35.95 0 l
71.89 -120.89 l
o
np
528.79 222.80 m
71.89 120.88 l
35.95 0 l
71.90 -120.88 l
o
267.65 407.42 (dur) 0 ta
-0.120 (ation< 521.5) tb gr
122.72 287.60 (poutcome=f) 0 ta
-0.360 (alr) tb
-0.600 (,othr) tb gr
235.29 165.65 (dur) 0 ta
-0.120 (ation< 163.5) tb gr
522.87 286.53 (dur) 0 ta
-0.120 (ation< 827.5) tb gr
497.67 392.44 (dur) 0 ta
-0.120 (ation>=521.5) tb gr
291.53 272.98 (poutcome=sccs) .5 0 t
341.30 150.67 (dur) 0 ta
-0.120 (ation>=163.5) tb gr
628.88 271.56 (dur) 0 ta
-0.120 (ation>=827.5) tb gr
/bg { 1 1 1 srgb } def
np
 492.64 464.56 m
-0.37 2.56 l
-1.10 2.52 l
-1.82 2.47 l
-2.52 2.39 l
-3.19 2.28 l
-3.83 2.15 l
-4.43 1.99 l
-4.97 1.80 l
-5.47 1.61 l
-5.90 1.40 l
-6.27 1.16 l
-6.56 0.91 l
-6.80 0.67 l
-6.95 0.40 l
-7.02 0.13 l
-7.03 -0.13 l
-6.94 -0.40 l
-6.80 -0.67 l
-6.57 -0.91 l
-6.26 -1.16 l
-5.90 -1.40 l
-5.47 -1.61 l
-4.97 -1.80 l
-4.43 -1.99 l
-3.83 -2.15 l
-3.20 -2.28 l
-2.52 -2.39 l
-1.82 -2.47 l
-1.10 -2.52 l
-0.37 -2.56 l
0.37 -2.55 l
1.10 -2.53 l
1.82 -2.47 l
2.52 -2.39 l
3.20 -2.28 l
3.83 -2.14 l
4.43 -1.99 l
4.97 -1.81 l
5.47 -1.61 l
5.90 -1.39 l
6.26 -1.16 l
6.57 -0.92 l
6.80 -0.66 l
6.94 -0.40 l
7.03 -0.13 l
7.02 0.13 l
6.95 0.40 l
6.80 0.66 l
6.56 0.92 l
6.27 1.16 l
5.90 1.39 l
5.47 1.61 l
4.97 1.81 l
4.43 1.99 l
3.83 2.14 l
3.19 2.28 l
2.52 2.39 l
1.82 2.47 l
1.10 2.53 l
0.37 2.55 l
cp p3
np
 299.42 343.68 m
-0.36 2.55 l
-1.11 2.53 l
-1.82 2.47 l
-2.52 2.39 l
-3.19 2.28 l
-3.83 2.14 l
-4.43 1.99 l
-4.97 1.81 l
-5.47 1.61 l
-5.90 1.39 l
-6.27 1.16 l
-6.56 0.92 l
-6.80 0.66 l
-6.95 0.40 l
-7.02 0.14 l
-7.02 -0.14 l
-6.95 -0.40 l
-6.80 -0.66 l
-6.56 -0.92 l
-6.27 -1.16 l
-5.90 -1.39 l
-5.47 -1.61 l
-4.97 -1.81 l
-4.43 -1.99 l
-3.83 -2.14 l
-3.19 -2.28 l
-2.52 -2.39 l
-1.82 -2.47 l
-1.11 -2.53 l
-0.36 -2.55 l
0.36 -2.55 l
1.11 -2.53 l
1.82 -2.47 l
2.52 -2.39 l
3.19 -2.28 l
3.83 -2.14 l
4.43 -1.99 l
4.97 -1.81 l
5.47 -1.61 l
5.90 -1.39 l
6.27 -1.17 l
6.56 -0.91 l
6.80 -0.66 l
6.95 -0.40 l
7.02 -0.14 l
7.02 0.14 l
6.95 0.40 l
6.80 0.66 l
6.56 0.91 l
6.27 1.17 l
5.90 1.39 l
5.47 1.61 l
4.97 1.81 l
4.43 1.99 l
3.83 2.14 l
3.19 2.28 l
2.52 2.39 l
1.82 2.47 l
1.11 2.53 l
0.36 2.55 l
cp p3
np
 398.28 222.80 m
-0.37 2.55 l
-1.10 2.53 l
-1.82 2.47 l
-2.52 2.39 l
-3.19 2.27 l
-3.84 2.15 l
-4.42 1.99 l
-4.98 1.81 l
-5.46 1.61 l
-5.90 1.39 l
-6.27 1.16 l
-6.57 0.92 l
-6.79 0.66 l
-6.95 0.40 l
-7.02 0.13 l
-7.03 -0.13 l
-6.95 -0.40 l
-6.79 -0.66 l
-6.57 -0.92 l
-6.27 -1.16 l
-5.90 -1.39 l
-5.46 -1.61 l
-4.98 -1.81 l
-4.42 -1.99 l
-3.83 -2.15 l
-3.20 -2.27 l
-2.52 -2.39 l
-1.82 -2.47 l
-1.10 -2.53 l
-0.37 -2.55 l
0.37 -2.56 l
1.10 -2.52 l
1.82 -2.48 l
2.52 -2.38 l
3.20 -2.28 l
3.83 -2.15 l
4.42 -1.99 l
4.98 -1.80 l
5.46 -1.61 l
5.90 -1.40 l
6.27 -1.16 l
6.57 -0.92 l
6.79 -0.66 l
6.95 -0.40 l
7.03 -0.13 l
7.02 0.13 l
6.95 0.40 l
6.79 0.66 l
6.57 0.92 l
6.27 1.16 l
5.90 1.40 l
5.46 1.61 l
4.98 1.80 l
4.42 1.99 l
3.84 2.15 l
3.19 2.28 l
2.52 2.38 l
1.82 2.48 l
1.10 2.52 l
0.37 2.56 l
cp p3
np
 685.86 343.68 m
-0.37 2.55 l
-1.10 2.53 l
-1.82 2.47 l
-2.52 2.39 l
-3.19 2.28 l
-3.83 2.14 l
-4.43 1.99 l
-4.98 1.81 l
-5.46 1.61 l
-5.90 1.39 l
-6.27 1.16 l
-6.57 0.92 l
-6.79 0.66 l
-6.95 0.40 l
-7.02 0.14 l
-7.03 -0.14 l
-6.95 -0.40 l
-6.79 -0.66 l
-6.57 -0.92 l
-6.26 -1.16 l
-5.90 -1.39 l
-5.47 -1.61 l
-4.98 -1.81 l
-4.42 -1.99 l
-3.83 -2.14 l
-3.20 -2.28 l
-2.52 -2.39 l
-1.82 -2.47 l
-1.10 -2.53 l
-0.37 -2.55 l
0.37 -2.55 l
1.10 -2.53 l
1.82 -2.47 l
2.52 -2.39 l
3.20 -2.28 l
3.83 -2.14 l
4.42 -1.99 l
4.98 -1.81 l
5.47 -1.61 l
5.90 -1.39 l
6.26 -1.17 l
6.57 -0.91 l
6.79 -0.66 l
6.95 -0.40 l
7.03 -0.14 l
7.02 0.14 l
6.95 0.40 l
6.79 0.66 l
6.57 0.91 l
6.27 1.17 l
5.90 1.39 l
5.46 1.61 l
4.98 1.81 l
4.43 1.99 l
3.83 2.14 l
3.19 2.28 l
2.52 2.39 l
1.82 2.47 l
1.10 2.53 l
0.37 2.55 l
cp p3
np
 180.88 240.08 m
0 -34.56 l
-95.04 0 l
0 34.56 l
cp p3
np
 288.73 119.19 m
0 -34.56 l
-95.04 0 l
0 34.56 l
cp p3
np
 468.46 119.19 m
0 -34.56 l
-95.04 0 l
0 34.56 l
cp p3
np
 576.31 240.08 m
0 -34.56 l
-95.04 0 l
0 34.56 l
cp p3
np
 756.05 240.08 m
0 -34.56 l
-95.04 0 l
0 34.56 l
cp p3
425.44 474.66 (no ) .5 0 t
425.44 460.26 (39922/5289) .5 0 t
232.22 353.77 (no ) .5 0 t
232.22 339.37 (37132/3106) .5 0 t
133.36 232.89 (no ) .5 0 t
133.36 218.49 (36548/2247) .5 0 t
321.74 232.89 (y) 0 ta
-0.240 (es) tb gr
331.08 218.49 (584/859) .5 0 t
241.21 112.00 (no ) .5 0 t
241.21 97.60 (295/126) .5 0 t
411.61 112.00 (y) 0 ta
-0.240 (es) tb gr
420.94 97.60 (289/733) .5 0 t
618.66 353.77 (no ) .5 0 t
618.66 339.37 (2790/2183) .5 0 t
528.79 232.89 (no ) .5 0 t
528.79 218.49 (2044/1147) .5 0 t
699.19 232.89 (y) 0 ta
-0.240 (es) tb gr
708.53 218.49 (746/1036) .5 0 t
18.00 18.00 823.89 577.28 cl
/Font2 findfont 14 s
0 0 0 srgb
213.23 542.73 (Classification T) 0 ta
-1.120 (ree f) tb
-0.280 (or whether the bank off) tb
-0.140 (er was taken or not) tb gr
ep
%%Trailer
%%Pages: 1
%%EOF
